{
  "type": "service_account",
  "project_id": "daveapp-8db4a",
  "private_key_id": "277857633d6e7b3e0e2ebfd1abf1bf27a587c047",
  "private_key": "-----BEGIN PRIVATE KEY-----\nMIIEvQIBADANBgkqhkiG9w0BAQEFAASCBKcwggSjAgEAAoIBAQCg5kZE0lih0MBG\nJutCPGUXQCGZzgDuhl7tU8/2A2NbWUWKAkdWGYX/FZP5vKoDVVFGupjy4e43SCjR\nWWvIle4i6hF3TiEixWjsyitHIrdpOuDPzfLdAY0GVP023m/7eKB5gBE1smGktqOJ\nH0TJXCrnHUyoXa40tUAWAKK+OtyNSST+u3qWs7yO4bABDiuNMfzdu0xjIBCNsiOT\np46kkYcODjS5JPU8eZPmTWWZkxunq+OUehzaNM2dyidiLGzofDhDJUh11RWAHtT2\nT3XyQFV7K/hlPGt+tY13KHLM8EpuAbwb72R5oOJB3vw1dL/SIKLOdbeojcgaq2cD\n0D8F8rFfAgMBAAECggEADKojdM5TwKTkRYFRujxzvpFDM86Fv0CfXzHeKCCbJPkR\nYqwMPmgy5mGl7J3fifSguZ79Y/zJmdtZryTJOZgnjuL6rffd3tVIDX9aSbafVi6W\nvHSa/a9eENYGuldm3BXiF74vXJkmW2cu1x+5c9oH3Hovav84s5hiq3iwVqXeb1Zn\nFwavdEEK59t9q/NvKMWrtmTeO/tfZzomNG0Bqy/Lv+w/E+5sKzJ66nIHtUK8PMTP\nPZzn8frdWcWXxM3uMvRFV3z9qir6Xigyb8lWf6AWm+rnWBlnFa1XW72hBQLqiDJp\nntnWFDMNhdzLtnqaefC6x8+gaHR/oHh7+6tcZbEC0QKBgQDQ1YExoSCt5/GwxXu8\nynFrD7/ICHukiCuSA+6xw8ftk2mBMl7MeET+QYrIgTpcy64QxRa4FmsVV8HRHn/H\nk9b3NY9A5IuSXkoepZJVbl/gIZhbPxbwtXiLF0N/lYEwyE8flqSEMYFQGmSdeeJN\nwrE/PXdwbSbQswNYsh9LVJpdzwKBgQDFPUNkevi1uc0CNpRJx00wHGnn0E1bfatr\nfnEF9aHtEIqY96AdhR9QV+pueygPzO1r3PQzqipG9/9HLtI86+jbIasdBfPneIzy\ndsOdLffrleW7uA/VTSzHkA7MIOG8aurfWt0a46WzgfTrdfRpP9X7P68v4OmOLDkL\nAuQ86h9ncQKBgQDHrq8XDnOZ9gODPIHBlm12qpt9oKbhPxcySjJNpd+gimjCkbBV\noNaPq4oRiIeOvW8WN+4uXblMshnwZFJYOkO9I2hz61SNwzzqKvVOXPit7lGpRh0g\nUtUNYlQ3RXQ/efk2QivS/ycfuezlKus54WTsDFENnkEUI2eaws7rj9z+vwKBgDyL\nOqWcTb3So8hbIpenEt2Cy0t6GFTONZFQhbcTmDnhyvl7gW2uUFdkNTTmnvyCphpm\n/5rgUAvq0jRyfdxvedHR+ul0y1KxIWrH4/Hai3CIWbWOoWWTQ/yaDsDAEyq4ExKu\nnJJFcLayXJDuazDnhHKUMN1ch7S5hGUJ5S+BmlQxAoGAaG2OMQ0iP2p9a8fsxwpQ\nbV913XgkMMBnaytiDHFEMmHB5lQkIWYLZEhEh2u7nJsQ/JT6o/redVbOED10/SRr\nN5NDuBS1twA4F6V3Z3dtKWa0xbeoikQ3tvsTtDDw7QoXryBjTTtX+Y/g1IEgGWBS\nn84dP61MFp1s+NGh2TccBBw=\n-----END PRIVATE KEY-----\n",
  "client_email": "firebase-adminsdk-arl62@daveapp-8db4a.iam.gserviceaccount.com",
  "client_id": "106154875672199006295",
  "auth_uri": "https://accounts.google.com/o/oauth2/auth",
  "token_uri": "https://accounts.google.com/o/oauth2/token",
  "auth_provider_x509_cert_url": "https://www.googleapis.com/oauth2/v1/certs",
  "client_x509_cert_url": "https://www.googleapis.com/robot/v1/metadata/x509/firebase-adminsdk-arl62%40daveapp-8db4a.iam.gserviceaccount.com"
}
